%YAML 1.1
%TAG !u! tag:unity3d.com,2011:
--- !u!21 &2100000
Material:
  serializedVersion: 6
  m_ObjectHideFlags: 0
  m_CorrespondingSourceObject: {fileID: 0}
  m_PrefabInstance: {fileID: 0}
  m_PrefabAsset: {fileID: 0}
  m_Name: CartoonWaterFlat
  m_Shader: {fileID: -6465566751694194690, guid: 0c2df743550dbe1479a1466f9184f4a3, type: 3}
  m_ShaderKeywords: 
  m_LightmapFlags: 4
  m_EnableInstancingVariants: 0
  m_DoubleSidedGI: 0
  m_CustomRenderQueue: -1
  stringTagMap: {}
  disabledShaderPasses: []
  m_SavedProperties:
    serializedVersion: 3
    m_TexEnvs:
    - unity_Lightmaps:
        m_Texture: {fileID: 0}
        m_Scale: {x: 1, y: 1}
        m_Offset: {x: 0, y: 0}
    - unity_LightmapsInd:
        m_Texture: {fileID: 0}
        m_Scale: {x: 1, y: 1}
        m_Offset: {x: 0, y: 0}
    - unity_ShadowMasks:
        m_Texture: {fileID: 0}
        m_Scale: {x: 1, y: 1}
        m_Offset: {x: 0, y: 0}
    m_Ints: []
    m_Floats:
    - RippleDensity: 7
    - RippleSlimness: 5
    - RippleSpeed: 1
    - WaveHeight: 2
    - WaveScale: 2
    - WaveSpeed: 0.1
    m_Colors:
    - BaseColor: {r: 0.04509804, g: 0.2529412, b: 0.5, a: 0.945098}
    - RippleColor: {r: 0, g: 0.11176471, b: 0.1254902, a: 1}
  m_BuildTextureStacks: []
