%YAML 1.1
%TAG !u! tag:unity3d.com,2011:
--- !u!1 &2124323062704251004
GameObject:
  m_ObjectHideFlags: 0
  m_CorrespondingSourceObject: {fileID: 0}
  m_PrefabInstance: {fileID: 0}
  m_PrefabAsset: {fileID: 0}
  serializedVersion: 6
  m_Component:
  - component: {fileID: 2124323062704251002}
  - component: {fileID: 2124323062704251003}
  m_Layer: 0
  m_Name: AudioManager
  m_TagString: Untagged
  m_Icon: {fileID: 0}
  m_NavMeshLayer: 0
  m_StaticEditorFlags: 0
  m_IsActive: 1
--- !u!4 &2124323062704251002
Transform:
  m_ObjectHideFlags: 0
  m_CorrespondingSourceObject: {fileID: 0}
  m_PrefabInstance: {fileID: 0}
  m_PrefabAsset: {fileID: 0}
  m_GameObject: {fileID: 2124323062704251004}
  m_LocalRotation: {x: 0, y: 0, z: 0, w: 1}
  m_LocalPosition: {x: 0, y: 0, z: 0}
  m_LocalScale: {x: 1, y: 1, z: 1}
  m_Children: []
  m_Father: {fileID: 0}
  m_RootOrder: 0
  m_LocalEulerAnglesHint: {x: 0, y: 0, z: 0}
--- !u!114 &2124323062704251003
MonoBehaviour:
  m_ObjectHideFlags: 0
  m_CorrespondingSourceObject: {fileID: 0}
  m_PrefabInstance: {fileID: 0}
  m_PrefabAsset: {fileID: 0}
  m_GameObject: {fileID: 2124323062704251004}
  m_Enabled: 1
  m_EditorHideFlags: 0
  m_Script: {fileID: 11500000, guid: 0b46e0de857d73a4d9e0da5b437c3d80, type: 3}
  m_Name: 
  m_EditorClassIdentifier: 
  MusicVolume: 1
  SfxVolume: 1
  MusicTracks:
  - Source: {fileID: 0}
    Clip: {fileID: 8300000, guid: ab0367329eb461f45aa078590615ddf4, type: 3}
    Volume: 1
    Loop: 1
  - Source: {fileID: 0}
    Clip: {fileID: 8300000, guid: b14028676ef8ac94d9b780f39f1ee1e2, type: 3}
    Volume: 1
    Loop: 1
  SfxSounds:
  - Source: {fileID: 0}
    Clip: {fileID: 8300000, guid: eef0099dca6b77048824551070d48201, type: 3}
    Volume: 1
    Loop: 0
  - Source: {fileID: 0}
    Clip: {fileID: 8300000, guid: dd83083dafab9774d9fdf1edd8efaa30, type: 3}
    Volume: 1
    Loop: 0
  - Source: {fileID: 0}
    Clip: {fileID: 8300000, guid: d131b1cbbafc4754786864c687a811df, type: 3}
    Volume: 1
    Loop: 0
  - Source: {fileID: 0}
    Clip: {fileID: 8300000, guid: 8b73b850a6cc0604bb015efb1043f3d7, type: 3}
    Volume: 1
    Loop: 0
  - Source: {fileID: 0}
    Clip: {fileID: 8300000, guid: 7ca70efa6afb05f478ad6a80f2c94c4d, type: 3}
    Volume: 1
    Loop: 0
  - Source: {fileID: 0}
    Clip: {fileID: 8300000, guid: 3948272ec7c760e4493bd3ad50c5ed7f, type: 3}
    Volume: 1
    Loop: 1
  - Source: {fileID: 0}
    Clip: {fileID: 8300000, guid: 8260f01ac38b5a847a881b14d267db82, type: 3}
    Volume: 1
    Loop: 0
  - Source: {fileID: 0}
    Clip: {fileID: 8300000, guid: 295a3f3eda2335649a2225cb62dcc1fd, type: 3}
    Volume: 1
    Loop: 0
  - Source: {fileID: 0}
    Clip: {fileID: 8300000, guid: c8a7743c4146f764288986f27e0e838f, type: 3}
    Volume: 1
    Loop: 0
  - Source: {fileID: 0}
    Clip: {fileID: 8300000, guid: 9c1e6ee8d633adb4f955cd3adf9fd5ec, type: 3}
    Volume: 1
    Loop: 0
  - Source: {fileID: 0}
    Clip: {fileID: 8300000, guid: a77738cfcca5fe84582061b09479d16e, type: 3}
    Volume: 1
    Loop: 0
  - Source: {fileID: 0}
    Clip: {fileID: 8300000, guid: 2a6ee03b6ecbb95499631e2bd9efff5c, type: 3}
    Volume: 1
    Loop: 0
  - Source: {fileID: 0}
    Clip: {fileID: 8300000, guid: 454d2be2098056541824e1396dd3fdaa, type: 3}
    Volume: 1
    Loop: 0
  - Source: {fileID: 0}
    Clip: {fileID: 8300000, guid: 70733726d68bcfb4c97deaaf9205ff9c, type: 3}
    Volume: 1
    Loop: 0
