%YAML 1.1
%TAG !u! tag:unity3d.com,2011:
--- !u!29 &1
OcclusionCullingSettings:
  m_ObjectHideFlags: 0
  serializedVersion: 2
  m_OcclusionBakeSettings:
    smallestOccluder: 5
    smallestHole: 0.25
    backfaceThreshold: 100
  m_SceneGUID: 00000000000000000000000000000000
  m_OcclusionCullingData: {fileID: 0}
--- !u!104 &2
RenderSettings:
  m_ObjectHideFlags: 0
  serializedVersion: 9
  m_Fog: 0
  m_FogColor: {r: 0.5, g: 0.5, b: 0.5, a: 1}
  m_FogMode: 3
  m_FogDensity: 0.01
  m_LinearFogStart: 0
  m_LinearFogEnd: 300
  m_AmbientSkyColor: {r: 0.212, g: 0.227, b: 0.259, a: 1}
  m_AmbientEquatorColor: {r: 0.114, g: 0.125, b: 0.133, a: 1}
  m_AmbientGroundColor: {r: 0.047, g: 0.043, b: 0.035, a: 1}
  m_AmbientIntensity: 1
  m_AmbientMode: 0
  m_SubtractiveShadowColor: {r: 0.42, g: 0.478, b: 0.627, a: 1}
  m_SkyboxMaterial: {fileID: 10304, guid: 0000000000000000f000000000000000, type: 0}
  m_HaloStrength: 0.5
  m_FlareStrength: 1
  m_FlareFadeSpeed: 3
  m_HaloTexture: {fileID: 0}
  m_SpotCookie: {fileID: 10001, guid: 0000000000000000e000000000000000, type: 0}
  m_DefaultReflectionMode: 0
  m_DefaultReflectionResolution: 128
  m_ReflectionBounces: 1
  m_ReflectionIntensity: 1
  m_CustomReflection: {fileID: 0}
  m_Sun: {fileID: 0}
  m_IndirectSpecularColor: {r: 0.44657844, g: 0.49641222, b: 0.57481694, a: 1}
  m_UseRadianceAmbientProbe: 0
--- !u!157 &3
LightmapSettings:
  m_ObjectHideFlags: 0
  serializedVersion: 12
  m_GIWorkflowMode: 1
  m_GISettings:
    serializedVersion: 2
    m_BounceScale: 1
    m_IndirectOutputScale: 1
    m_AlbedoBoost: 1
    m_EnvironmentLightingMode: 0
    m_EnableBakedLightmaps: 1
    m_EnableRealtimeLightmaps: 0
  m_LightmapEditorSettings:
    serializedVersion: 12
    m_Resolution: 2
    m_BakeResolution: 40
    m_AtlasSize: 1024
    m_AO: 0
    m_AOMaxDistance: 1
    m_CompAOExponent: 1
    m_CompAOExponentDirect: 0
    m_ExtractAmbientOcclusion: 0
    m_Padding: 2
    m_LightmapParameters: {fileID: 0}
    m_LightmapsBakeMode: 1
    m_TextureCompression: 1
    m_FinalGather: 0
    m_FinalGatherFiltering: 1
    m_FinalGatherRayCount: 256
    m_ReflectionCompression: 2
    m_MixedBakeMode: 2
    m_BakeBackend: 1
    m_PVRSampling: 1
    m_PVRDirectSampleCount: 32
    m_PVRSampleCount: 512
    m_PVRBounces: 2
    m_PVREnvironmentSampleCount: 256
    m_PVREnvironmentReferencePointCount: 2048
    m_PVRFilteringMode: 1
    m_PVRDenoiserTypeDirect: 1
    m_PVRDenoiserTypeIndirect: 1
    m_PVRDenoiserTypeAO: 1
    m_PVRFilterTypeDirect: 0
    m_PVRFilterTypeIndirect: 0
    m_PVRFilterTypeAO: 0
    m_PVREnvironmentMIS: 1
    m_PVRCulling: 1
    m_PVRFilteringGaussRadiusDirect: 1
    m_PVRFilteringGaussRadiusIndirect: 5
    m_PVRFilteringGaussRadiusAO: 2
    m_PVRFilteringAtrousPositionSigmaDirect: 0.5
    m_PVRFilteringAtrousPositionSigmaIndirect: 2
    m_PVRFilteringAtrousPositionSigmaAO: 1
    m_ExportTrainingData: 0
    m_TrainingDataDestination: TrainingData
    m_LightProbeSampleCountMultiplier: 4
  m_LightingDataAsset: {fileID: 0}
  m_LightingSettings: {fileID: 0}
--- !u!196 &4
NavMeshSettings:
  serializedVersion: 2
  m_ObjectHideFlags: 0
  m_BuildSettings:
    serializedVersion: 2
    agentTypeID: 0
    agentRadius: 0.5
    agentHeight: 2
    agentSlope: 45
    agentClimb: 0.4
    ledgeDropHeight: 0
    maxJumpAcrossDistance: 0
    minRegionArea: 2
    manualCellSize: 0
    cellSize: 0.16666667
    manualTileSize: 0
    tileSize: 256
    accuratePlacement: 0
    maxJobWorkers: 0
    preserveTilesOutsideBounds: 0
    debug:
      m_Flags: 0
  m_NavMeshData: {fileID: 0}
--- !u!1001 &362301234
PrefabInstance:
  m_ObjectHideFlags: 0
  serializedVersion: 2
  m_Modification:
    m_TransformParent: {fileID: 0}
    m_Modifications:
    - target: {fileID: 8565805637464046132, guid: ca44a1adb6fb8e24083bf0e8652c8084, type: 3}
      propertyPath: m_RootOrder
      value: 4
      objectReference: {fileID: 0}
    - target: {fileID: 8565805637464046132, guid: ca44a1adb6fb8e24083bf0e8652c8084, type: 3}
      propertyPath: m_LocalPosition.x
      value: 0
      objectReference: {fileID: 0}
    - target: {fileID: 8565805637464046132, guid: ca44a1adb6fb8e24083bf0e8652c8084, type: 3}
      propertyPath: m_LocalPosition.y
      value: 0
      objectReference: {fileID: 0}
    - target: {fileID: 8565805637464046132, guid: ca44a1adb6fb8e24083bf0e8652c8084, type: 3}
      propertyPath: m_LocalPosition.z
      value: 0
      objectReference: {fileID: 0}
    - target: {fileID: 8565805637464046132, guid: ca44a1adb6fb8e24083bf0e8652c8084, type: 3}
      propertyPath: m_LocalRotation.w
      value: 1
      objectReference: {fileID: 0}
    - target: {fileID: 8565805637464046132, guid: ca44a1adb6fb8e24083bf0e8652c8084, type: 3}
      propertyPath: m_LocalRotation.x
      value: 0
      objectReference: {fileID: 0}
    - target: {fileID: 8565805637464046132, guid: ca44a1adb6fb8e24083bf0e8652c8084, type: 3}
      propertyPath: m_LocalRotation.y
      value: 0
      objectReference: {fileID: 0}
    - target: {fileID: 8565805637464046132, guid: ca44a1adb6fb8e24083bf0e8652c8084, type: 3}
      propertyPath: m_LocalRotation.z
      value: 0
      objectReference: {fileID: 0}
    - target: {fileID: 8565805637464046132, guid: ca44a1adb6fb8e24083bf0e8652c8084, type: 3}
      propertyPath: m_LocalEulerAnglesHint.x
      value: 0
      objectReference: {fileID: 0}
    - target: {fileID: 8565805637464046132, guid: ca44a1adb6fb8e24083bf0e8652c8084, type: 3}
      propertyPath: m_LocalEulerAnglesHint.y
      value: 0
      objectReference: {fileID: 0}
    - target: {fileID: 8565805637464046132, guid: ca44a1adb6fb8e24083bf0e8652c8084, type: 3}
      propertyPath: m_LocalEulerAnglesHint.z
      value: 0
      objectReference: {fileID: 0}
    - target: {fileID: 8565805637464046135, guid: ca44a1adb6fb8e24083bf0e8652c8084, type: 3}
      propertyPath: m_Name
      value: CameraCollection
      objectReference: {fileID: 0}
    m_RemovedComponents: []
  m_SourcePrefab: {fileID: 100100000, guid: ca44a1adb6fb8e24083bf0e8652c8084, type: 3}
--- !u!1 &603762876 stripped
GameObject:
  m_CorrespondingSourceObject: {fileID: 7161637831064355001, guid: ebdc1c986e0c1344aa97149d153190fd, type: 3}
  m_PrefabInstance: {fileID: 7161637831581609989}
  m_PrefabAsset: {fileID: 0}
--- !u!1 &853565216
GameObject:
  m_ObjectHideFlags: 0
  m_CorrespondingSourceObject: {fileID: 0}
  m_PrefabInstance: {fileID: 0}
  m_PrefabAsset: {fileID: 0}
  serializedVersion: 6
  m_Component:
  - component: {fileID: 853565218}
  - component: {fileID: 853565217}
  m_Layer: 0
  m_Name: Directional Light
  m_TagString: Untagged
  m_Icon: {fileID: 0}
  m_NavMeshLayer: 0
  m_StaticEditorFlags: 0
  m_IsActive: 1
--- !u!108 &853565217
Light:
  m_ObjectHideFlags: 0
  m_CorrespondingSourceObject: {fileID: 0}
  m_PrefabInstance: {fileID: 0}
  m_PrefabAsset: {fileID: 0}
  m_GameObject: {fileID: 853565216}
  m_Enabled: 1
  serializedVersion: 10
  m_Type: 1
  m_Shape: 0
  m_Color: {r: 1, g: 0.95686275, b: 0.8392157, a: 1}
  m_Intensity: 1
  m_Range: 10
  m_SpotAngle: 30
  m_InnerSpotAngle: 21.80208
  m_CookieSize: 10
  m_Shadows:
    m_Type: 2
    m_Resolution: -1
    m_CustomResolution: -1
    m_Strength: 1
    m_Bias: 0.05
    m_NormalBias: 0.4
    m_NearPlane: 0.2
    m_CullingMatrixOverride:
      e00: 1
      e01: 0
      e02: 0
      e03: 0
      e10: 0
      e11: 1
      e12: 0
      e13: 0
      e20: 0
      e21: 0
      e22: 1
      e23: 0
      e30: 0
      e31: 0
      e32: 0
      e33: 1
    m_UseCullingMatrixOverride: 0
  m_Cookie: {fileID: 0}
  m_DrawHalo: 0
  m_Flare: {fileID: 0}
  m_RenderMode: 0
  m_CullingMask:
    serializedVersion: 2
    m_Bits: 4294967295
  m_RenderingLayerMask: 1
  m_Lightmapping: 4
  m_LightShadowCasterMode: 0
  m_AreaSize: {x: 1, y: 1}
  m_BounceIntensity: 1
  m_ColorTemperature: 6570
  m_UseColorTemperature: 0
  m_BoundingSphereOverride: {x: 0, y: 0, z: 0, w: 0}
  m_UseBoundingSphereOverride: 0
  m_UseViewFrustumForShadowCasterCull: 1
  m_ShadowRadius: 0
  m_ShadowAngle: 0
--- !u!4 &853565218
Transform:
  m_ObjectHideFlags: 0
  m_CorrespondingSourceObject: {fileID: 0}
  m_PrefabInstance: {fileID: 0}
  m_PrefabAsset: {fileID: 0}
  m_GameObject: {fileID: 853565216}
  m_LocalRotation: {x: 0.40821788, y: -0.23456968, z: 0.10938163, w: 0.8754261}
  m_LocalPosition: {x: 0, y: 3, z: 0}
  m_LocalScale: {x: 1, y: 1, z: 1}
  m_Children: []
  m_Father: {fileID: 0}
  m_RootOrder: 0
  m_LocalEulerAnglesHint: {x: 50, y: -30, z: 0}
--- !u!1 &922872422
GameObject:
  m_ObjectHideFlags: 0
  m_CorrespondingSourceObject: {fileID: 0}
  m_PrefabInstance: {fileID: 0}
  m_PrefabAsset: {fileID: 0}
  serializedVersion: 6
  m_Component:
  - component: {fileID: 922872425}
  - component: {fileID: 922872424}
  - component: {fileID: 922872423}
  m_Layer: 0
  m_Name: EventSystem
  m_TagString: Untagged
  m_Icon: {fileID: 0}
  m_NavMeshLayer: 0
  m_StaticEditorFlags: 0
  m_IsActive: 1
--- !u!114 &922872423
MonoBehaviour:
  m_ObjectHideFlags: 0
  m_CorrespondingSourceObject: {fileID: 0}
  m_PrefabInstance: {fileID: 0}
  m_PrefabAsset: {fileID: 0}
  m_GameObject: {fileID: 922872422}
  m_Enabled: 1
  m_EditorHideFlags: 0
  m_Script: {fileID: 11500000, guid: 01614664b831546d2ae94a42149d80ac, type: 3}
  m_Name: 
  m_EditorClassIdentifier: 
  m_MoveRepeatDelay: 0.5
  m_MoveRepeatRate: 0.1
  m_ActionsAsset: {fileID: -944628639613478452, guid: ca9f5fa95ffab41fb9a615ab714db018, type: 3}
  m_PointAction: {fileID: 1054132383583890850, guid: ca9f5fa95ffab41fb9a615ab714db018, type: 3}
  m_MoveAction: {fileID: 3710738434707379630, guid: ca9f5fa95ffab41fb9a615ab714db018, type: 3}
  m_SubmitAction: {fileID: 2064916234097673511, guid: ca9f5fa95ffab41fb9a615ab714db018, type: 3}
  m_CancelAction: {fileID: -1967631576421560919, guid: ca9f5fa95ffab41fb9a615ab714db018, type: 3}
  m_LeftClickAction: {fileID: 8056856818456041789, guid: ca9f5fa95ffab41fb9a615ab714db018, type: 3}
  m_MiddleClickAction: {fileID: 3279352641294131588, guid: ca9f5fa95ffab41fb9a615ab714db018, type: 3}
  m_RightClickAction: {fileID: 3837173908680883260, guid: ca9f5fa95ffab41fb9a615ab714db018, type: 3}
  m_ScrollWheelAction: {fileID: 4502412055082496612, guid: ca9f5fa95ffab41fb9a615ab714db018, type: 3}
  m_TrackedDevicePositionAction: {fileID: 4754684134866288074, guid: ca9f5fa95ffab41fb9a615ab714db018, type: 3}
  m_TrackedDeviceOrientationAction: {fileID: 1025543830046995696, guid: ca9f5fa95ffab41fb9a615ab714db018, type: 3}
  m_DeselectOnBackgroundClick: 1
  m_PointerBehavior: 0
--- !u!114 &922872424
MonoBehaviour:
  m_ObjectHideFlags: 0
  m_CorrespondingSourceObject: {fileID: 0}
  m_PrefabInstance: {fileID: 0}
  m_PrefabAsset: {fileID: 0}
  m_GameObject: {fileID: 922872422}
  m_Enabled: 1
  m_EditorHideFlags: 0
  m_Script: {fileID: 11500000, guid: 76c392e42b5098c458856cdf6ecaaaa1, type: 3}
  m_Name: 
  m_EditorClassIdentifier: 
  m_FirstSelected: {fileID: 0}
  m_sendNavigationEvents: 1
  m_DragThreshold: 10
--- !u!4 &922872425
Transform:
  m_ObjectHideFlags: 0
  m_CorrespondingSourceObject: {fileID: 0}
  m_PrefabInstance: {fileID: 0}
  m_PrefabAsset: {fileID: 0}
  m_GameObject: {fileID: 922872422}
  m_LocalRotation: {x: 0, y: 0, z: 0, w: 1}
  m_LocalPosition: {x: 0, y: 0, z: 0}
  m_LocalScale: {x: 1, y: 1, z: 1}
  m_Children: []
  m_Father: {fileID: 0}
  m_RootOrder: 5
  m_LocalEulerAnglesHint: {x: 0, y: 0, z: 0}
--- !u!1001 &1006466420
PrefabInstance:
  m_ObjectHideFlags: 0
  serializedVersion: 2
  m_Modification:
    m_TransformParent: {fileID: 0}
    m_Modifications:
    - target: {fileID: 4025697583373450164, guid: 37c81c4ce3833f84387f03ad04edccb9, type: 3}
      propertyPath: m_Name
      value: Plato
      objectReference: {fileID: 0}
    - target: {fileID: 4025697583373450167, guid: 37c81c4ce3833f84387f03ad04edccb9, type: 3}
      propertyPath: m_RootOrder
      value: 1
      objectReference: {fileID: 0}
    - target: {fileID: 4025697583373450167, guid: 37c81c4ce3833f84387f03ad04edccb9, type: 3}
      propertyPath: m_LocalPosition.x
      value: 0
      objectReference: {fileID: 0}
    - target: {fileID: 4025697583373450167, guid: 37c81c4ce3833f84387f03ad04edccb9, type: 3}
      propertyPath: m_LocalPosition.y
      value: 0
      objectReference: {fileID: 0}
    - target: {fileID: 4025697583373450167, guid: 37c81c4ce3833f84387f03ad04edccb9, type: 3}
      propertyPath: m_LocalPosition.z
      value: 0
      objectReference: {fileID: 0}
    - target: {fileID: 4025697583373450167, guid: 37c81c4ce3833f84387f03ad04edccb9, type: 3}
      propertyPath: m_LocalRotation.w
      value: 1
      objectReference: {fileID: 0}
    - target: {fileID: 4025697583373450167, guid: 37c81c4ce3833f84387f03ad04edccb9, type: 3}
      propertyPath: m_LocalRotation.x
      value: 0
      objectReference: {fileID: 0}
    - target: {fileID: 4025697583373450167, guid: 37c81c4ce3833f84387f03ad04edccb9, type: 3}
      propertyPath: m_LocalRotation.y
      value: 0
      objectReference: {fileID: 0}
    - target: {fileID: 4025697583373450167, guid: 37c81c4ce3833f84387f03ad04edccb9, type: 3}
      propertyPath: m_LocalRotation.z
      value: 0
      objectReference: {fileID: 0}
    - target: {fileID: 4025697583373450167, guid: 37c81c4ce3833f84387f03ad04edccb9, type: 3}
      propertyPath: m_LocalEulerAnglesHint.x
      value: 0
      objectReference: {fileID: 0}
    - target: {fileID: 4025697583373450167, guid: 37c81c4ce3833f84387f03ad04edccb9, type: 3}
      propertyPath: m_LocalEulerAnglesHint.y
      value: 0
      objectReference: {fileID: 0}
    - target: {fileID: 4025697583373450167, guid: 37c81c4ce3833f84387f03ad04edccb9, type: 3}
      propertyPath: m_LocalEulerAnglesHint.z
      value: 0
      objectReference: {fileID: 0}
    m_RemovedComponents: []
  m_SourcePrefab: {fileID: 100100000, guid: 37c81c4ce3833f84387f03ad04edccb9, type: 3}
--- !u!1001 &1161374999
PrefabInstance:
  m_ObjectHideFlags: 0
  serializedVersion: 2
  m_Modification:
    m_TransformParent: {fileID: 0}
    m_Modifications:
    - target: {fileID: -8679921383154817045, guid: 5c76c4fc0ce22e446a4b4e43b75808ed, type: 3}
      propertyPath: m_RootOrder
      value: 10
      objectReference: {fileID: 0}
    - target: {fileID: -8679921383154817045, guid: 5c76c4fc0ce22e446a4b4e43b75808ed, type: 3}
      propertyPath: m_LocalScale.x
      value: 250
      objectReference: {fileID: 0}
    - target: {fileID: -8679921383154817045, guid: 5c76c4fc0ce22e446a4b4e43b75808ed, type: 3}
      propertyPath: m_LocalScale.y
      value: 250
      objectReference: {fileID: 0}
    - target: {fileID: -8679921383154817045, guid: 5c76c4fc0ce22e446a4b4e43b75808ed, type: 3}
      propertyPath: m_LocalScale.z
      value: 250
      objectReference: {fileID: 0}
    - target: {fileID: -8679921383154817045, guid: 5c76c4fc0ce22e446a4b4e43b75808ed, type: 3}
      propertyPath: m_LocalPosition.x
      value: 0
      objectReference: {fileID: 0}
    - target: {fileID: -8679921383154817045, guid: 5c76c4fc0ce22e446a4b4e43b75808ed, type: 3}
      propertyPath: m_LocalPosition.y
      value: -10.75
      objectReference: {fileID: 0}
    - target: {fileID: -8679921383154817045, guid: 5c76c4fc0ce22e446a4b4e43b75808ed, type: 3}
      propertyPath: m_LocalPosition.z
      value: 0
      objectReference: {fileID: 0}
    - target: {fileID: -8679921383154817045, guid: 5c76c4fc0ce22e446a4b4e43b75808ed, type: 3}
      propertyPath: m_LocalRotation.w
      value: 0.99984777
      objectReference: {fileID: 0}
    - target: {fileID: -8679921383154817045, guid: 5c76c4fc0ce22e446a4b4e43b75808ed, type: 3}
      propertyPath: m_LocalRotation.x
      value: 0.01745245
      objectReference: {fileID: 0}
    - target: {fileID: -8679921383154817045, guid: 5c76c4fc0ce22e446a4b4e43b75808ed, type: 3}
      propertyPath: m_LocalRotation.y
      value: 0
      objectReference: {fileID: 0}
    - target: {fileID: -8679921383154817045, guid: 5c76c4fc0ce22e446a4b4e43b75808ed, type: 3}
      propertyPath: m_LocalRotation.z
      value: 0
      objectReference: {fileID: 0}
    - target: {fileID: -8679921383154817045, guid: 5c76c4fc0ce22e446a4b4e43b75808ed, type: 3}
      propertyPath: m_LocalEulerAnglesHint.x
      value: 2
      objectReference: {fileID: 0}
    - target: {fileID: -8679921383154817045, guid: 5c76c4fc0ce22e446a4b4e43b75808ed, type: 3}
      propertyPath: m_LocalEulerAnglesHint.y
      value: 0
      objectReference: {fileID: 0}
    - target: {fileID: -8679921383154817045, guid: 5c76c4fc0ce22e446a4b4e43b75808ed, type: 3}
      propertyPath: m_LocalEulerAnglesHint.z
      value: 0
      objectReference: {fileID: 0}
    - target: {fileID: -7511558181221131132, guid: 5c76c4fc0ce22e446a4b4e43b75808ed, type: 3}
      propertyPath: m_Materials.Array.data[0]
      value: 
      objectReference: {fileID: 2100000, guid: 421994e8548f5f64c82784fd56b49aa2, type: 2}
    - target: {fileID: 919132149155446097, guid: 5c76c4fc0ce22e446a4b4e43b75808ed, type: 3}
      propertyPath: m_Name
      value: Plane250x250 (2)
      objectReference: {fileID: 0}
    m_RemovedComponents: []
  m_SourcePrefab: {fileID: 100100000, guid: 5c76c4fc0ce22e446a4b4e43b75808ed, type: 3}
--- !u!1001 &1262936902
PrefabInstance:
  m_ObjectHideFlags: 0
  serializedVersion: 2
  m_Modification:
    m_TransformParent: {fileID: 0}
    m_Modifications:
    - target: {fileID: -8679921383154817045, guid: 5c76c4fc0ce22e446a4b4e43b75808ed, type: 3}
      propertyPath: m_RootOrder
      value: 7
      objectReference: {fileID: 0}
    - target: {fileID: -8679921383154817045, guid: 5c76c4fc0ce22e446a4b4e43b75808ed, type: 3}
      propertyPath: m_LocalScale.x
      value: 250
      objectReference: {fileID: 0}
    - target: {fileID: -8679921383154817045, guid: 5c76c4fc0ce22e446a4b4e43b75808ed, type: 3}
      propertyPath: m_LocalScale.y
      value: 250
      objectReference: {fileID: 0}
    - target: {fileID: -8679921383154817045, guid: 5c76c4fc0ce22e446a4b4e43b75808ed, type: 3}
      propertyPath: m_LocalScale.z
      value: 250
      objectReference: {fileID: 0}
    - target: {fileID: -8679921383154817045, guid: 5c76c4fc0ce22e446a4b4e43b75808ed, type: 3}
      propertyPath: m_LocalPosition.x
      value: 0
      objectReference: {fileID: 0}
    - target: {fileID: -8679921383154817045, guid: 5c76c4fc0ce22e446a4b4e43b75808ed, type: 3}
      propertyPath: m_LocalPosition.y
      value: -10.75
      objectReference: {fileID: 0}
    - target: {fileID: -8679921383154817045, guid: 5c76c4fc0ce22e446a4b4e43b75808ed, type: 3}
      propertyPath: m_LocalPosition.z
      value: 0
      objectReference: {fileID: 0}
    - target: {fileID: -8679921383154817045, guid: 5c76c4fc0ce22e446a4b4e43b75808ed, type: 3}
      propertyPath: m_LocalRotation.w
      value: 0.99984777
      objectReference: {fileID: 0}
    - target: {fileID: -8679921383154817045, guid: 5c76c4fc0ce22e446a4b4e43b75808ed, type: 3}
      propertyPath: m_LocalRotation.x
      value: -0.01745245
      objectReference: {fileID: 0}
    - target: {fileID: -8679921383154817045, guid: 5c76c4fc0ce22e446a4b4e43b75808ed, type: 3}
      propertyPath: m_LocalRotation.y
      value: 0
      objectReference: {fileID: 0}
    - target: {fileID: -8679921383154817045, guid: 5c76c4fc0ce22e446a4b4e43b75808ed, type: 3}
      propertyPath: m_LocalRotation.z
      value: 0
      objectReference: {fileID: 0}
    - target: {fileID: -8679921383154817045, guid: 5c76c4fc0ce22e446a4b4e43b75808ed, type: 3}
      propertyPath: m_LocalEulerAnglesHint.x
      value: -2
      objectReference: {fileID: 0}
    - target: {fileID: -8679921383154817045, guid: 5c76c4fc0ce22e446a4b4e43b75808ed, type: 3}
      propertyPath: m_LocalEulerAnglesHint.y
      value: 0
      objectReference: {fileID: 0}
    - target: {fileID: -8679921383154817045, guid: 5c76c4fc0ce22e446a4b4e43b75808ed, type: 3}
      propertyPath: m_LocalEulerAnglesHint.z
      value: 0
      objectReference: {fileID: 0}
    - target: {fileID: -7511558181221131132, guid: 5c76c4fc0ce22e446a4b4e43b75808ed, type: 3}
      propertyPath: m_Materials.Array.data[0]
      value: 
      objectReference: {fileID: 2100000, guid: 421994e8548f5f64c82784fd56b49aa2, type: 2}
    - target: {fileID: 919132149155446097, guid: 5c76c4fc0ce22e446a4b4e43b75808ed, type: 3}
      propertyPath: m_Name
      value: Plane250x250
      objectReference: {fileID: 0}
    m_RemovedComponents: []
  m_SourcePrefab: {fileID: 100100000, guid: 5c76c4fc0ce22e446a4b4e43b75808ed, type: 3}
--- !u!1 &1535926718 stripped
GameObject:
  m_CorrespondingSourceObject: {fileID: 2250009851253470836, guid: 4d5402343843857488467fba6e12eed1, type: 3}
  m_PrefabInstance: {fileID: 2250009850607818698}
  m_PrefabAsset: {fileID: 0}
--- !u!1001 &1686255134
PrefabInstance:
  m_ObjectHideFlags: 0
  serializedVersion: 2
  m_Modification:
    m_TransformParent: {fileID: 0}
    m_Modifications:
    - target: {fileID: 6048647717007677924, guid: b8003eb6c9757854e8b2e084723c488f, type: 3}
      propertyPath: m_Name
      value: GameController
      objectReference: {fileID: 0}
    - target: {fileID: 6048647717007677930, guid: b8003eb6c9757854e8b2e084723c488f, type: 3}
      propertyPath: m_RootOrder
      value: 6
      objectReference: {fileID: 0}
    - target: {fileID: 6048647717007677930, guid: b8003eb6c9757854e8b2e084723c488f, type: 3}
      propertyPath: m_LocalPosition.x
      value: 0
      objectReference: {fileID: 0}
    - target: {fileID: 6048647717007677930, guid: b8003eb6c9757854e8b2e084723c488f, type: 3}
      propertyPath: m_LocalPosition.y
      value: 0
      objectReference: {fileID: 0}
    - target: {fileID: 6048647717007677930, guid: b8003eb6c9757854e8b2e084723c488f, type: 3}
      propertyPath: m_LocalPosition.z
      value: 0
      objectReference: {fileID: 0}
    - target: {fileID: 6048647717007677930, guid: b8003eb6c9757854e8b2e084723c488f, type: 3}
      propertyPath: m_LocalRotation.w
      value: 1
      objectReference: {fileID: 0}
    - target: {fileID: 6048647717007677930, guid: b8003eb6c9757854e8b2e084723c488f, type: 3}
      propertyPath: m_LocalRotation.x
      value: 0
      objectReference: {fileID: 0}
    - target: {fileID: 6048647717007677930, guid: b8003eb6c9757854e8b2e084723c488f, type: 3}
      propertyPath: m_LocalRotation.y
      value: 0
      objectReference: {fileID: 0}
    - target: {fileID: 6048647717007677930, guid: b8003eb6c9757854e8b2e084723c488f, type: 3}
      propertyPath: m_LocalRotation.z
      value: 0
      objectReference: {fileID: 0}
    - target: {fileID: 6048647717007677930, guid: b8003eb6c9757854e8b2e084723c488f, type: 3}
      propertyPath: m_LocalEulerAnglesHint.x
      value: 0
      objectReference: {fileID: 0}
    - target: {fileID: 6048647717007677930, guid: b8003eb6c9757854e8b2e084723c488f, type: 3}
      propertyPath: m_LocalEulerAnglesHint.y
      value: 0
      objectReference: {fileID: 0}
    - target: {fileID: 6048647717007677930, guid: b8003eb6c9757854e8b2e084723c488f, type: 3}
      propertyPath: m_LocalEulerAnglesHint.z
      value: 0
      objectReference: {fileID: 0}
    - target: {fileID: 6048647717007677931, guid: b8003eb6c9757854e8b2e084723c488f, type: 3}
      propertyPath: gameUI
      value: 
      objectReference: {fileID: 603762876}
    - target: {fileID: 6048647717007677931, guid: b8003eb6c9757854e8b2e084723c488f, type: 3}
      propertyPath: blockCrane
      value: 
      objectReference: {fileID: 1535926718}
    m_RemovedComponents: []
  m_SourcePrefab: {fileID: 100100000, guid: b8003eb6c9757854e8b2e084723c488f, type: 3}
--- !u!1001 &1802985509
PrefabInstance:
  m_ObjectHideFlags: 0
  serializedVersion: 2
  m_Modification:
    m_TransformParent: {fileID: 0}
    m_Modifications:
    - target: {fileID: 1103702339046981553, guid: d02b9861b4fd43f40be7d5a9b2096e05, type: 3}
      propertyPath: m_Name
      value: Overlay
      objectReference: {fileID: 0}
    - target: {fileID: 1103702339046981557, guid: d02b9861b4fd43f40be7d5a9b2096e05, type: 3}
      propertyPath: m_Pivot.x
      value: 0
      objectReference: {fileID: 0}
    - target: {fileID: 1103702339046981557, guid: d02b9861b4fd43f40be7d5a9b2096e05, type: 3}
      propertyPath: m_Pivot.y
      value: 0
      objectReference: {fileID: 0}
    - target: {fileID: 1103702339046981557, guid: d02b9861b4fd43f40be7d5a9b2096e05, type: 3}
      propertyPath: m_RootOrder
      value: 12
      objectReference: {fileID: 0}
    - target: {fileID: 1103702339046981557, guid: d02b9861b4fd43f40be7d5a9b2096e05, type: 3}
      propertyPath: m_AnchorMax.x
      value: 0
      objectReference: {fileID: 0}
    - target: {fileID: 1103702339046981557, guid: d02b9861b4fd43f40be7d5a9b2096e05, type: 3}
      propertyPath: m_AnchorMax.y
      value: 0
      objectReference: {fileID: 0}
    - target: {fileID: 1103702339046981557, guid: d02b9861b4fd43f40be7d5a9b2096e05, type: 3}
      propertyPath: m_AnchorMin.x
      value: 0
      objectReference: {fileID: 0}
    - target: {fileID: 1103702339046981557, guid: d02b9861b4fd43f40be7d5a9b2096e05, type: 3}
      propertyPath: m_AnchorMin.y
      value: 0
      objectReference: {fileID: 0}
    - target: {fileID: 1103702339046981557, guid: d02b9861b4fd43f40be7d5a9b2096e05, type: 3}
      propertyPath: m_SizeDelta.x
      value: 0
      objectReference: {fileID: 0}
    - target: {fileID: 1103702339046981557, guid: d02b9861b4fd43f40be7d5a9b2096e05, type: 3}
      propertyPath: m_SizeDelta.y
      value: 0
      objectReference: {fileID: 0}
    - target: {fileID: 1103702339046981557, guid: d02b9861b4fd43f40be7d5a9b2096e05, type: 3}
      propertyPath: m_LocalPosition.x
      value: 0
      objectReference: {fileID: 0}
    - target: {fileID: 1103702339046981557, guid: d02b9861b4fd43f40be7d5a9b2096e05, type: 3}
      propertyPath: m_LocalPosition.y
      value: 0
      objectReference: {fileID: 0}
    - target: {fileID: 1103702339046981557, guid: d02b9861b4fd43f40be7d5a9b2096e05, type: 3}
      propertyPath: m_LocalPosition.z
      value: 0
      objectReference: {fileID: 0}
    - target: {fileID: 1103702339046981557, guid: d02b9861b4fd43f40be7d5a9b2096e05, type: 3}
      propertyPath: m_LocalRotation.w
      value: 1
      objectReference: {fileID: 0}
    - target: {fileID: 1103702339046981557, guid: d02b9861b4fd43f40be7d5a9b2096e05, type: 3}
      propertyPath: m_LocalRotation.x
      value: 0
      objectReference: {fileID: 0}
    - target: {fileID: 1103702339046981557, guid: d02b9861b4fd43f40be7d5a9b2096e05, type: 3}
      propertyPath: m_LocalRotation.y
      value: 0
      objectReference: {fileID: 0}
    - target: {fileID: 1103702339046981557, guid: d02b9861b4fd43f40be7d5a9b2096e05, type: 3}
      propertyPath: m_LocalRotation.z
      value: 0
      objectReference: {fileID: 0}
    - target: {fileID: 1103702339046981557, guid: d02b9861b4fd43f40be7d5a9b2096e05, type: 3}
      propertyPath: m_AnchoredPosition.x
      value: 0
      objectReference: {fileID: 0}
    - target: {fileID: 1103702339046981557, guid: d02b9861b4fd43f40be7d5a9b2096e05, type: 3}
      propertyPath: m_AnchoredPosition.y
      value: 0
      objectReference: {fileID: 0}
    - target: {fileID: 1103702339046981557, guid: d02b9861b4fd43f40be7d5a9b2096e05, type: 3}
      propertyPath: m_LocalEulerAnglesHint.x
      value: 0
      objectReference: {fileID: 0}
    - target: {fileID: 1103702339046981557, guid: d02b9861b4fd43f40be7d5a9b2096e05, type: 3}
      propertyPath: m_LocalEulerAnglesHint.y
      value: 0
      objectReference: {fileID: 0}
    - target: {fileID: 1103702339046981557, guid: d02b9861b4fd43f40be7d5a9b2096e05, type: 3}
      propertyPath: m_LocalEulerAnglesHint.z
      value: 0
      objectReference: {fileID: 0}
    m_RemovedComponents: []
  m_SourcePrefab: {fileID: 100100000, guid: d02b9861b4fd43f40be7d5a9b2096e05, type: 3}
--- !u!1001 &2066961157
PrefabInstance:
  m_ObjectHideFlags: 0
  serializedVersion: 2
  m_Modification:
    m_TransformParent: {fileID: 0}
    m_Modifications:
    - target: {fileID: -8679921383154817045, guid: 5c76c4fc0ce22e446a4b4e43b75808ed, type: 3}
      propertyPath: m_RootOrder
      value: 11
      objectReference: {fileID: 0}
    - target: {fileID: -8679921383154817045, guid: 5c76c4fc0ce22e446a4b4e43b75808ed, type: 3}
      propertyPath: m_LocalScale.x
      value: 250
      objectReference: {fileID: 0}
    - target: {fileID: -8679921383154817045, guid: 5c76c4fc0ce22e446a4b4e43b75808ed, type: 3}
      propertyPath: m_LocalScale.y
      value: 250
      objectReference: {fileID: 0}
    - target: {fileID: -8679921383154817045, guid: 5c76c4fc0ce22e446a4b4e43b75808ed, type: 3}
      propertyPath: m_LocalScale.z
      value: 250
      objectReference: {fileID: 0}
    - target: {fileID: -8679921383154817045, guid: 5c76c4fc0ce22e446a4b4e43b75808ed, type: 3}
      propertyPath: m_LocalPosition.x
      value: 0
      objectReference: {fileID: 0}
    - target: {fileID: -8679921383154817045, guid: 5c76c4fc0ce22e446a4b4e43b75808ed, type: 3}
      propertyPath: m_LocalPosition.y
      value: -10.75
      objectReference: {fileID: 0}
    - target: {fileID: -8679921383154817045, guid: 5c76c4fc0ce22e446a4b4e43b75808ed, type: 3}
      propertyPath: m_LocalPosition.z
      value: 0
      objectReference: {fileID: 0}
    - target: {fileID: -8679921383154817045, guid: 5c76c4fc0ce22e446a4b4e43b75808ed, type: 3}
      propertyPath: m_LocalRotation.w
      value: 0.99984777
      objectReference: {fileID: 0}
    - target: {fileID: -8679921383154817045, guid: 5c76c4fc0ce22e446a4b4e43b75808ed, type: 3}
      propertyPath: m_LocalRotation.x
      value: 0
      objectReference: {fileID: 0}
    - target: {fileID: -8679921383154817045, guid: 5c76c4fc0ce22e446a4b4e43b75808ed, type: 3}
      propertyPath: m_LocalRotation.y
      value: 0
      objectReference: {fileID: 0}
    - target: {fileID: -8679921383154817045, guid: 5c76c4fc0ce22e446a4b4e43b75808ed, type: 3}
      propertyPath: m_LocalRotation.z
      value: 0.01745245
      objectReference: {fileID: 0}
    - target: {fileID: -8679921383154817045, guid: 5c76c4fc0ce22e446a4b4e43b75808ed, type: 3}
      propertyPath: m_LocalEulerAnglesHint.x
      value: 0
      objectReference: {fileID: 0}
    - target: {fileID: -8679921383154817045, guid: 5c76c4fc0ce22e446a4b4e43b75808ed, type: 3}
      propertyPath: m_LocalEulerAnglesHint.y
      value: 0
      objectReference: {fileID: 0}
    - target: {fileID: -8679921383154817045, guid: 5c76c4fc0ce22e446a4b4e43b75808ed, type: 3}
      propertyPath: m_LocalEulerAnglesHint.z
      value: 2
      objectReference: {fileID: 0}
    - target: {fileID: -7511558181221131132, guid: 5c76c4fc0ce22e446a4b4e43b75808ed, type: 3}
      propertyPath: m_Materials.Array.data[0]
      value: 
      objectReference: {fileID: 2100000, guid: 421994e8548f5f64c82784fd56b49aa2, type: 2}
    - target: {fileID: 919132149155446097, guid: 5c76c4fc0ce22e446a4b4e43b75808ed, type: 3}
      propertyPath: m_Name
      value: Plane250x250 (3)
      objectReference: {fileID: 0}
    m_RemovedComponents: []
  m_SourcePrefab: {fileID: 100100000, guid: 5c76c4fc0ce22e446a4b4e43b75808ed, type: 3}
--- !u!1001 &2119166382
PrefabInstance:
  m_ObjectHideFlags: 0
  serializedVersion: 2
  m_Modification:
    m_TransformParent: {fileID: 0}
    m_Modifications:
    - target: {fileID: -8679921383154817045, guid: 5c76c4fc0ce22e446a4b4e43b75808ed, type: 3}
      propertyPath: m_RootOrder
      value: 9
      objectReference: {fileID: 0}
    - target: {fileID: -8679921383154817045, guid: 5c76c4fc0ce22e446a4b4e43b75808ed, type: 3}
      propertyPath: m_LocalScale.x
      value: 250
      objectReference: {fileID: 0}
    - target: {fileID: -8679921383154817045, guid: 5c76c4fc0ce22e446a4b4e43b75808ed, type: 3}
      propertyPath: m_LocalScale.y
      value: 250
      objectReference: {fileID: 0}
    - target: {fileID: -8679921383154817045, guid: 5c76c4fc0ce22e446a4b4e43b75808ed, type: 3}
      propertyPath: m_LocalScale.z
      value: 250
      objectReference: {fileID: 0}
    - target: {fileID: -8679921383154817045, guid: 5c76c4fc0ce22e446a4b4e43b75808ed, type: 3}
      propertyPath: m_LocalPosition.x
      value: 0
      objectReference: {fileID: 0}
    - target: {fileID: -8679921383154817045, guid: 5c76c4fc0ce22e446a4b4e43b75808ed, type: 3}
      propertyPath: m_LocalPosition.y
      value: -10.75
      objectReference: {fileID: 0}
    - target: {fileID: -8679921383154817045, guid: 5c76c4fc0ce22e446a4b4e43b75808ed, type: 3}
      propertyPath: m_LocalPosition.z
      value: 0
      objectReference: {fileID: 0}
    - target: {fileID: -8679921383154817045, guid: 5c76c4fc0ce22e446a4b4e43b75808ed, type: 3}
      propertyPath: m_LocalRotation.w
      value: 0.99984777
      objectReference: {fileID: 0}
    - target: {fileID: -8679921383154817045, guid: 5c76c4fc0ce22e446a4b4e43b75808ed, type: 3}
      propertyPath: m_LocalRotation.x
      value: 0
      objectReference: {fileID: 0}
    - target: {fileID: -8679921383154817045, guid: 5c76c4fc0ce22e446a4b4e43b75808ed, type: 3}
      propertyPath: m_LocalRotation.y
      value: 0
      objectReference: {fileID: 0}
    - target: {fileID: -8679921383154817045, guid: 5c76c4fc0ce22e446a4b4e43b75808ed, type: 3}
      propertyPath: m_LocalRotation.z
      value: -0.01745245
      objectReference: {fileID: 0}
    - target: {fileID: -8679921383154817045, guid: 5c76c4fc0ce22e446a4b4e43b75808ed, type: 3}
      propertyPath: m_LocalEulerAnglesHint.x
      value: 0
      objectReference: {fileID: 0}
    - target: {fileID: -8679921383154817045, guid: 5c76c4fc0ce22e446a4b4e43b75808ed, type: 3}
      propertyPath: m_LocalEulerAnglesHint.y
      value: 0
      objectReference: {fileID: 0}
    - target: {fileID: -8679921383154817045, guid: 5c76c4fc0ce22e446a4b4e43b75808ed, type: 3}
      propertyPath: m_LocalEulerAnglesHint.z
      value: -2
      objectReference: {fileID: 0}
    - target: {fileID: -7511558181221131132, guid: 5c76c4fc0ce22e446a4b4e43b75808ed, type: 3}
      propertyPath: m_Materials.Array.data[0]
      value: 
      objectReference: {fileID: 2100000, guid: 421994e8548f5f64c82784fd56b49aa2, type: 2}
    - target: {fileID: 919132149155446097, guid: 5c76c4fc0ce22e446a4b4e43b75808ed, type: 3}
      propertyPath: m_Name
      value: Plane250x250 (1)
      objectReference: {fileID: 0}
    m_RemovedComponents: []
  m_SourcePrefab: {fileID: 100100000, guid: 5c76c4fc0ce22e446a4b4e43b75808ed, type: 3}
--- !u!1001 &2250009850607818698
PrefabInstance:
  m_ObjectHideFlags: 0
  serializedVersion: 2
  m_Modification:
    m_TransformParent: {fileID: 0}
    m_Modifications:
    - target: {fileID: 2250009851253470730, guid: 4d5402343843857488467fba6e12eed1, type: 3}
      propertyPath: m_RootOrder
      value: 2
      objectReference: {fileID: 0}
    - target: {fileID: 2250009851253470730, guid: 4d5402343843857488467fba6e12eed1, type: 3}
      propertyPath: m_LocalPosition.x
      value: 0
      objectReference: {fileID: 0}
    - target: {fileID: 2250009851253470730, guid: 4d5402343843857488467fba6e12eed1, type: 3}
      propertyPath: m_LocalPosition.y
      value: 10.99
      objectReference: {fileID: 0}
    - target: {fileID: 2250009851253470730, guid: 4d5402343843857488467fba6e12eed1, type: 3}
      propertyPath: m_LocalPosition.z
      value: 0
      objectReference: {fileID: 0}
    - target: {fileID: 2250009851253470730, guid: 4d5402343843857488467fba6e12eed1, type: 3}
      propertyPath: m_LocalRotation.w
      value: 1
      objectReference: {fileID: 0}
    - target: {fileID: 2250009851253470730, guid: 4d5402343843857488467fba6e12eed1, type: 3}
      propertyPath: m_LocalRotation.x
      value: 0
      objectReference: {fileID: 0}
    - target: {fileID: 2250009851253470730, guid: 4d5402343843857488467fba6e12eed1, type: 3}
      propertyPath: m_LocalRotation.y
      value: 0
      objectReference: {fileID: 0}
    - target: {fileID: 2250009851253470730, guid: 4d5402343843857488467fba6e12eed1, type: 3}
      propertyPath: m_LocalRotation.z
      value: 0
      objectReference: {fileID: 0}
    - target: {fileID: 2250009851253470730, guid: 4d5402343843857488467fba6e12eed1, type: 3}
      propertyPath: m_LocalEulerAnglesHint.x
      value: 0
      objectReference: {fileID: 0}
    - target: {fileID: 2250009851253470730, guid: 4d5402343843857488467fba6e12eed1, type: 3}
      propertyPath: m_LocalEulerAnglesHint.y
      value: 0
      objectReference: {fileID: 0}
    - target: {fileID: 2250009851253470730, guid: 4d5402343843857488467fba6e12eed1, type: 3}
      propertyPath: m_LocalEulerAnglesHint.z
      value: 0
      objectReference: {fileID: 0}
    - target: {fileID: 2250009851253470836, guid: 4d5402343843857488467fba6e12eed1, type: 3}
      propertyPath: m_Name
      value: BlockCrane
      objectReference: {fileID: 0}
    m_RemovedComponents: []
  m_SourcePrefab: {fileID: 100100000, guid: 4d5402343843857488467fba6e12eed1, type: 3}
--- !u!1001 &4399229139898416646
PrefabInstance:
  m_ObjectHideFlags: 0
  serializedVersion: 2
  m_Modification:
    m_TransformParent: {fileID: 0}
    m_Modifications:
    - target: {fileID: 2124323062704251002, guid: 16d22c0947ecfbd46ba6ba3ffdf22f01, type: 3}
      propertyPath: m_RootOrder
      value: 3
      objectReference: {fileID: 0}
    - target: {fileID: 2124323062704251002, guid: 16d22c0947ecfbd46ba6ba3ffdf22f01, type: 3}
      propertyPath: m_LocalPosition.x
      value: 0
      objectReference: {fileID: 0}
    - target: {fileID: 2124323062704251002, guid: 16d22c0947ecfbd46ba6ba3ffdf22f01, type: 3}
      propertyPath: m_LocalPosition.y
      value: 0
      objectReference: {fileID: 0}
    - target: {fileID: 2124323062704251002, guid: 16d22c0947ecfbd46ba6ba3ffdf22f01, type: 3}
      propertyPath: m_LocalPosition.z
      value: 0
      objectReference: {fileID: 0}
    - target: {fileID: 2124323062704251002, guid: 16d22c0947ecfbd46ba6ba3ffdf22f01, type: 3}
      propertyPath: m_LocalRotation.w
      value: 1
      objectReference: {fileID: 0}
    - target: {fileID: 2124323062704251002, guid: 16d22c0947ecfbd46ba6ba3ffdf22f01, type: 3}
      propertyPath: m_LocalRotation.x
      value: 0
      objectReference: {fileID: 0}
    - target: {fileID: 2124323062704251002, guid: 16d22c0947ecfbd46ba6ba3ffdf22f01, type: 3}
      propertyPath: m_LocalRotation.y
      value: 0
      objectReference: {fileID: 0}
    - target: {fileID: 2124323062704251002, guid: 16d22c0947ecfbd46ba6ba3ffdf22f01, type: 3}
      propertyPath: m_LocalRotation.z
      value: 0
      objectReference: {fileID: 0}
    - target: {fileID: 2124323062704251002, guid: 16d22c0947ecfbd46ba6ba3ffdf22f01, type: 3}
      propertyPath: m_LocalEulerAnglesHint.x
      value: 0
      objectReference: {fileID: 0}
    - target: {fileID: 2124323062704251002, guid: 16d22c0947ecfbd46ba6ba3ffdf22f01, type: 3}
      propertyPath: m_LocalEulerAnglesHint.y
      value: 0
      objectReference: {fileID: 0}
    - target: {fileID: 2124323062704251002, guid: 16d22c0947ecfbd46ba6ba3ffdf22f01, type: 3}
      propertyPath: m_LocalEulerAnglesHint.z
      value: 0
      objectReference: {fileID: 0}
    - target: {fileID: 2124323062704251004, guid: 16d22c0947ecfbd46ba6ba3ffdf22f01, type: 3}
      propertyPath: m_Name
      value: AudioManager
      objectReference: {fileID: 0}
    m_RemovedComponents: []
  m_SourcePrefab: {fileID: 100100000, guid: 16d22c0947ecfbd46ba6ba3ffdf22f01, type: 3}
--- !u!1001 &7161637831581609989
PrefabInstance:
  m_ObjectHideFlags: 0
  serializedVersion: 2
  m_Modification:
    m_TransformParent: {fileID: 0}
    m_Modifications:
    - target: {fileID: 7161637831064355001, guid: ebdc1c986e0c1344aa97149d153190fd, type: 3}
      propertyPath: m_Name
      value: GameUI
      objectReference: {fileID: 0}
    - target: {fileID: 7161637831064355013, guid: ebdc1c986e0c1344aa97149d153190fd, type: 3}
      propertyPath: m_Pivot.x
      value: 0
      objectReference: {fileID: 0}
    - target: {fileID: 7161637831064355013, guid: ebdc1c986e0c1344aa97149d153190fd, type: 3}
      propertyPath: m_Pivot.y
      value: 0
      objectReference: {fileID: 0}
    - target: {fileID: 7161637831064355013, guid: ebdc1c986e0c1344aa97149d153190fd, type: 3}
      propertyPath: m_RootOrder
      value: 8
      objectReference: {fileID: 0}
    - target: {fileID: 7161637831064355013, guid: ebdc1c986e0c1344aa97149d153190fd, type: 3}
      propertyPath: m_AnchorMax.x
      value: 0
      objectReference: {fileID: 0}
    - target: {fileID: 7161637831064355013, guid: ebdc1c986e0c1344aa97149d153190fd, type: 3}
      propertyPath: m_AnchorMax.y
      value: 0
      objectReference: {fileID: 0}
    - target: {fileID: 7161637831064355013, guid: ebdc1c986e0c1344aa97149d153190fd, type: 3}
      propertyPath: m_AnchorMin.x
      value: 0
      objectReference: {fileID: 0}
    - target: {fileID: 7161637831064355013, guid: ebdc1c986e0c1344aa97149d153190fd, type: 3}
      propertyPath: m_AnchorMin.y
      value: 0
      objectReference: {fileID: 0}
    - target: {fileID: 7161637831064355013, guid: ebdc1c986e0c1344aa97149d153190fd, type: 3}
      propertyPath: m_SizeDelta.x
      value: 0
      objectReference: {fileID: 0}
    - target: {fileID: 7161637831064355013, guid: ebdc1c986e0c1344aa97149d153190fd, type: 3}
      propertyPath: m_SizeDelta.y
      value: 0
      objectReference: {fileID: 0}
    - target: {fileID: 7161637831064355013, guid: ebdc1c986e0c1344aa97149d153190fd, type: 3}
      propertyPath: m_LocalPosition.x
      value: 0
      objectReference: {fileID: 0}
    - target: {fileID: 7161637831064355013, guid: ebdc1c986e0c1344aa97149d153190fd, type: 3}
      propertyPath: m_LocalPosition.y
      value: 0
      objectReference: {fileID: 0}
    - target: {fileID: 7161637831064355013, guid: ebdc1c986e0c1344aa97149d153190fd, type: 3}
      propertyPath: m_LocalPosition.z
      value: 0
      objectReference: {fileID: 0}
    - target: {fileID: 7161637831064355013, guid: ebdc1c986e0c1344aa97149d153190fd, type: 3}
      propertyPath: m_LocalRotation.w
      value: 1
      objectReference: {fileID: 0}
    - target: {fileID: 7161637831064355013, guid: ebdc1c986e0c1344aa97149d153190fd, type: 3}
      propertyPath: m_LocalRotation.x
      value: 0
      objectReference: {fileID: 0}
    - target: {fileID: 7161637831064355013, guid: ebdc1c986e0c1344aa97149d153190fd, type: 3}
      propertyPath: m_LocalRotation.y
      value: 0
      objectReference: {fileID: 0}
    - target: {fileID: 7161637831064355013, guid: ebdc1c986e0c1344aa97149d153190fd, type: 3}
      propertyPath: m_LocalRotation.z
      value: 0
      objectReference: {fileID: 0}
    - target: {fileID: 7161637831064355013, guid: ebdc1c986e0c1344aa97149d153190fd, type: 3}
      propertyPath: m_AnchoredPosition.x
      value: 0
      objectReference: {fileID: 0}
    - target: {fileID: 7161637831064355013, guid: ebdc1c986e0c1344aa97149d153190fd, type: 3}
      propertyPath: m_AnchoredPosition.y
      value: 0
      objectReference: {fileID: 0}
    - target: {fileID: 7161637831064355013, guid: ebdc1c986e0c1344aa97149d153190fd, type: 3}
      propertyPath: m_LocalEulerAnglesHint.x
      value: 0
      objectReference: {fileID: 0}
    - target: {fileID: 7161637831064355013, guid: ebdc1c986e0c1344aa97149d153190fd, type: 3}
      propertyPath: m_LocalEulerAnglesHint.y
      value: 0
      objectReference: {fileID: 0}
    - target: {fileID: 7161637831064355013, guid: ebdc1c986e0c1344aa97149d153190fd, type: 3}
      propertyPath: m_LocalEulerAnglesHint.z
      value: 0
      objectReference: {fileID: 0}
    m_RemovedComponents: []
  m_SourcePrefab: {fileID: 100100000, guid: ebdc1c986e0c1344aa97149d153190fd, type: 3}
